%YAML 1.1
%TAG !u! tag:unity3d.com,2011:
--- !u!162 &1
EditorUserSettings:
  m_ObjectHideFlags: 0
  serializedVersion: 4
  m_ConfigSettings:
    RecentlyUsedSceneGuid-0:
      value: 5a5757560101590a5d0c0e24427b5d44434e4c7a7b7a23677f2b4565b7b5353a
      flags: 0
    RecentlyUsedSceneGuid-1:
      value: 56550d040302505a5a57582444730b4414154c722f7973312c704460e1e13561
      flags: 0
    RecentlyUsedSceneGuid-2:
      value: 5b520d50570c0d0c5a5a5876137b07444e4f1d7f297e20617b7e1e60bbb6653c
      flags: 0
    RecentlyUsedSceneGuid-3:
      value: 5252565f5c025b0c5f0b587548725b4447154a287e2d7136752a1f37b2b2363b
      flags: 0
    RecentlyUsedSceneGuid-4:
      value: 5a06555704010802540c5e7743760d44454e492c7b782733752a1b64e3e56c69
      flags: 0
    RecentlyUsedSceneGuid-5:
      value: 5b5452055d500b58585709701671084417164928782a73662e701c6bb6e3666d
      flags: 0
    vcSharedLogLevel:
      value: 0d5e400f0650
      flags: 0
  m_VCAutomaticAdd: 1
  m_VCDebugCom: 0
  m_VCDebugCmd: 0
  m_VCDebugOut: 0
  m_SemanticMergeMode: 2
  m_DesiredImportWorkerCount: 4
  m_StandbyImportWorkerCount: 2
  m_IdleImportWorkerShutdownDelay: 60000
  m_VCShowFailedCheckout: 1
  m_VCOverwriteFailedCheckoutAssets: 1
  m_VCProjectOverlayIcons: 1
  m_VCHierarchyOverlayIcons: 1
  m_VCOtherOverlayIcons: 1
  m_VCAllowAsyncUpdate: 1
  m_ArtifactGarbageCollection: 1
