%YAML 1.1
%TAG !u! tag:unity3d.com,2011:
--- !u!114 &11400000
MonoBehaviour:
  m_ObjectHideFlags: 0
  m_CorrespondingSourceObject: {fileID: 0}
  m_PrefabInstance: {fileID: 0}
  m_PrefabAsset: {fileID: 0}
  m_GameObject: {fileID: 0}
  m_Enabled: 1
  m_EditorHideFlags: 0
  m_Script: {fileID: 11500000, guid: 95e66c6366d904e98bc83428217d4fd7, type: 3}
  m_Name: PlayerTankController
  m_EditorClassIdentifier: 
  _data:
    _json: '{"graph":{"variables":{"Kind":"Flow","collection":{"$content":[],"$version":"A"},"$version":"A"},"controlInputDefinitions":[],"controlOutputDefinitions":[],"valueInputDefinitions":[],"valueOutputDefinitions":[],"title":null,"summary":null,"pan":{"x":899.9778,"y":2357.232},"zoom":0.5999999,"elements":[{"coroutine":false,"defaultValues":{},"position":{"x":-225.0,"y":237.0},"guid":"06e1b0b8-d145-4ec1-8308-dfffb14b7d8e","$version":"A","$type":"Unity.VisualScripting.Update","$id":"9"},{"chainable":false,"parameterNames":["key"],"member":{"name":"GetKey","parameterTypes":["UnityEngine.KeyCode"],"targetType":"UnityEngine.Input","targetTypeName":"UnityEngine.Input","$version":"A"},"defaultValues":{"%key":{"$content":"S","$type":"UnityEngine.KeyCode"}},"position":{"x":83.0,"y":1683.0},"guid":"4aff9c31-4510-481d-affa-c6e2f06208a6","$version":"A","$type":"Unity.VisualScripting.InvokeMember","$id":"11"},{"defaultValues":{},"position":{"x":309.0,"y":1681.0},"guid":"ddb64395-2b68-4b93-86d5-7cd06bba6cef","$version":"A","$type":"Unity.VisualScripting.If","$id":"15"},{"specifyFallback":false,"kind":"Object","defaultValues":{"name":{"$content":"Speed","$type":"System.String"},"object":null},"position":{"x":77.0,"y":1901.0},"guid":"84368815-0d42-4093-8a71-6f615fd76e45","$version":"A","$type":"Unity.VisualScripting.GetVariable","$id":"17"},{"defaultValues":{},"position":{"x":776.0,"y":1272.0},"guid":"62dc09b7-a395-48cd-89fb-2bded8d3659d","$version":"A","$type":"Unity.VisualScripting.GenericMultiply","$id":"19"},{"defaultValues":{},"position":{"x":401.0,"y":2011.0},"guid":"cf6923e6-a2cb-4ef6-8605-5f2b9a9d7a59","$version":"A","$type":"Unity.VisualScripting.GenericMultiply","$id":"21"},{"defaultValues":{},"position":{"x":801.0,"y":2013.0},"guid":"5d683322-76ff-425b-8e0e-b0fba6168252","$version":"A","$type":"Unity.VisualScripting.GenericMultiply","$id":"23"},{"coroutine":false,"defaultValues":{},"position":{"x":-195.0,"y":1685.0},"guid":"3bf0cf9c-94dd-4128-9c6c-07ab783030c6","$version":"A","$type":"Unity.VisualScripting.Update","$id":"25"},{"coroutine":false,"defaultValues":{},"position":{"x":-170.0,"y":2314.0},"guid":"e366092c-539e-4a7d-8d6b-c9d6b1e5504b","$version":"A","$type":"Unity.VisualScripting.Update","$id":"27"},{"member":{"name":"deltaTime","parameterTypes":null,"targetType":"UnityEngine.Time","targetTypeName":"UnityEngine.Time","$version":"A"},"defaultValues":{},"position":{"x":-189.0,"y":2017.0},"guid":"744b30c9-0495-4ce0-95fa-cd447951f18c","$version":"A","$type":"Unity.VisualScripting.GetMember","$id":"29"},{"defaultValues":{},"position":{"x":334.0,"y":2310.0},"guid":"97bd5274-2372-44c2-a56f-b31c98a05c37","$version":"A","$type":"Unity.VisualScripting.If","$id":"32"},{"specifyFallback":false,"kind":"Object","defaultValues":{"name":{"$content":"Speed","$type":"System.String"},"object":null},"position":{"x":102.0,"y":2530.0},"guid":"5072f04b-9346-4bb3-b61f-cbb43afb4a41","$version":"A","$type":"Unity.VisualScripting.GetVariable","$id":"34"},{"member":{"name":"deltaTime","parameterTypes":null,"targetType":"UnityEngine.Time","targetTypeName":"UnityEngine.Time","$version":"A"},"defaultValues":{},"position":{"x":-164.0,"y":2646.0},"guid":"8720c515-9e15-4aa2-9dd8-797598417b69","$version":"A","$type":"Unity.VisualScripting.GetMember","$id":"36"},{"defaultValues":{},"position":{"x":426.0,"y":2640.0},"guid":"152b7560-3fef-4d93-bb13-7c6f9026e4f9","$version":"A","$type":"Unity.VisualScripting.GenericMultiply","$id":"39"},{"defaultValues":{},"position":{"x":826.0,"y":2642.0},"guid":"38055de7-60f9-4e4f-bf5c-298d889506e3","$version":"A","$type":"Unity.VisualScripting.GenericMultiply","$id":"41"},{"member":{"name":"back","parameterTypes":null,"targetType":"UnityEngine.Vector3","targetTypeName":"UnityEngine.Vector3","$version":"A"},"defaultValues":{},"position":{"x":623.0,"y":1879.0},"guid":"5963c472-c9c8-4279-bdf5-6bf5a2023be1","$version":"A","$type":"Unity.VisualScripting.GetMember","$id":"43"},{"chainable":false,"parameterNames":["translation"],"member":{"name":"Translate","parameterTypes":["UnityEngine.Vector3"],"targetType":"UnityEngine.Transform","targetTypeName":"UnityEngine.Transform","$version":"A"},"defaultValues":{"target":null,"%translation":{"x":0.0,"y":0.0,"z":0.0,"$type":"UnityEngine.Vector3"}},"position":{"x":1365.0,"y":1681.0},"guid":"9abd6cbe-93dc-4403-a78c-2ab57b96b862","$version":"A","$type":"Unity.VisualScripting.InvokeMember","$id":"46"},{"chainable":false,"parameterNames":["key"],"member":{"name":"GetKey","parameterTypes":["UnityEngine.KeyCode"],"targetType":"UnityEngine.Input","targetTypeName":"UnityEngine.Input","$version":"A"},"defaultValues":{"%key":{"$content":"W","$type":"UnityEngine.KeyCode"}},"position":{"x":108.0,"y":2312.0},"guid":"34fcff76-e39e-45bc-9338-f862b5650b53","$version":"A","$type":"Unity.VisualScripting.InvokeMember","$id":"50"},{"defaultValues":{},"position":{"x":1116.0,"y":564.0},"guid":"079beb44-503c-4f82-bdfa-10be69067953","$version":"A","$type":"Unity.VisualScripting.GenericMultiply","$id":"54"},{"chainable":false,"parameterNames":["translation"],"member":{"name":"Translate","parameterTypes":["UnityEngine.Vector3"],"targetType":"UnityEngine.Transform","targetTypeName":"UnityEngine.Transform","$version":"A"},"defaultValues":{"target":null,"%translation":{"x":0.0,"y":0.0,"z":0.0,"$type":"UnityEngine.Vector3"}},"position":{"x":1135.0,"y":2306.0},"guid":"ca3a2e2a-034b-4680-ad20-62625d5157fc","$version":"A","$type":"Unity.VisualScripting.InvokeMember","$id":"56"},{"member":{"name":"deltaTime","parameterTypes":null,"targetType":"UnityEngine.Time","targetTypeName":"UnityEngine.Time","$version":"A"},"defaultValues":{},"position":{"x":-218.0,"y":568.0},"guid":"fe3691cf-f227-4942-acf4-9828f912db27","$version":"A","$type":"Unity.VisualScripting.GetMember","$id":"60"},{"chainable":false,"parameterNames":["key"],"member":{"name":"GetKey","parameterTypes":["UnityEngine.KeyCode"],"targetType":"UnityEngine.Input","targetTypeName":"UnityEngine.Input","$version":"A"},"defaultValues":{"%key":{"$content":"A","$type":"UnityEngine.KeyCode"}},"position":{"x":54.0,"y":235.0},"guid":"e332c795-1ba8-495e-8251-3dd97dfa0a80","$version":"A","$type":"Unity.VisualScripting.InvokeMember","$id":"63"},{"defaultValues":{},"position":{"x":279.0,"y":233.0},"guid":"d6ebbebb-76ed-4c1e-991e-5e06330de0cc","$version":"A","$type":"Unity.VisualScripting.If","$id":"67"},{"chainable":false,"parameterNames":["eulers"],"member":{"name":"Rotate","parameterTypes":["UnityEngine.Vector3"],"targetType":"UnityEngine.Transform","targetTypeName":"UnityEngine.Transform","$version":"A"},"defaultValues":{"target":null,"%eulers":{"x":0.0,"y":0.0,"z":0.0,"$type":"UnityEngine.Vector3"}},"position":{"x":1335.0,"y":232.0},"guid":"ac2783a6-28db-4fa5-b2b3-9fa4a92b0c1b","$version":"A","$type":"Unity.VisualScripting.InvokeMember","$id":"69"},{"specifyFallback":false,"kind":"Object","defaultValues":{"name":{"$content":"AngularSpeed","$type":"System.String"},"object":null},"position":{"x":48.0,"y":453.0},"guid":"03f51771-bdcb-465e-a906-6e762a9ef67a","$version":"A","$type":"Unity.VisualScripting.GetVariable","$id":"73"},{"member":{"name":"forward","parameterTypes":null,"targetType":"UnityEngine.Vector3","targetTypeName":"UnityEngine.Vector3","$version":"A"},"defaultValues":{},"position":{"x":648.0,"y":2508.0},"guid":"edaa4a42-abca-4f4b-8fad-3caef8144273","$version":"A","$type":"Unity.VisualScripting.GetMember","$id":"75"},{"defaultValues":{},"position":{"x":372.0,"y":563.0},"guid":"9966c2b1-0e48-4797-86ac-cac5995d8873","$version":"A","$type":"Unity.VisualScripting.GenericMultiply","$id":"78"},{"member":{"name":"up","parameterTypes":null,"targetType":"UnityEngine.Vector3","targetTypeName":"UnityEngine.Vector3","$version":"A"},"defaultValues":{},"position":{"x":593.0,"y":431.0},"guid":"7e396e30-765a-44b4-be74-c0c729bbbabf","$version":"A","$type":"Unity.VisualScripting.GetMember","$id":"80"},{"defaultValues":{},"position":{"x":376.0,"y":1270.0},"guid":"6a99eb1d-d33e-4ebe-b2dc-53e3d76e7dc9","$version":"A","$type":"Unity.VisualScripting.GenericMultiply","$id":"83"},{"member":{"name":"up","parameterTypes":null,"targetType":"UnityEngine.Vector3","targetTypeName":"UnityEngine.Vector3","$version":"A"},"defaultValues":{},"position":{"x":598.0,"y":1138.0},"guid":"9ed04b9f-de06-4955-a592-18a8959aa8a2","$version":"A","$type":"Unity.VisualScripting.GetMember","$id":"85"},{"type":"System.Single","value":{"$content":-1.0,"$type":"System.Single"},"defaultValues":{},"position":{"x":974.0,"y":757.0},"guid":"c13010c1-5b33-4851-9983-0b394fba5c0e","$version":"A","$type":"Unity.VisualScripting.Literal","$id":"88"},{"coroutine":false,"defaultValues":{},"position":{"x":-220.0,"y":944.0},"guid":"5252b0b3-20e5-486b-8c22-2878c6646b0a","$version":"A","$type":"Unity.VisualScripting.Update","$id":"90"},{"chainable":false,"parameterNames":["key"],"member":{"name":"GetKey","parameterTypes":["UnityEngine.KeyCode"],"targetType":"UnityEngine.Input","targetTypeName":"UnityEngine.Input","$version":"A"},"defaultValues":{"%key":{"$content":"D","$type":"UnityEngine.KeyCode"}},"position":{"x":58.0,"y":942.0},"guid":"44219407-8542-4ec0-af68-6026aaac27ff","$version":"A","$type":"Unity.VisualScripting.InvokeMember","$id":"92"},{"defaultValues":{},"position":{"x":284.0,"y":940.0},"guid":"080f2ef9-5350-4763-a495-34b908f8ef4c","$version":"A","$type":"Unity.VisualScripting.If","$id":"96"},{"chainable":false,"parameterNames":["eulers"],"member":{"name":"Rotate","parameterTypes":["UnityEngine.Vector3"],"targetType":"UnityEngine.Transform","targetTypeName":"UnityEngine.Transform","$version":"A"},"defaultValues":{"target":null,"%eulers":{"x":0.0,"y":0.0,"z":0.0,"$type":"UnityEngine.Vector3"}},"position":{"x":1340.0,"y":940.0},"guid":"79bab2e0-c0d7-4901-83c8-a3f1d9025aae","$version":"A","$type":"Unity.VisualScripting.InvokeMember","$id":"98"},{"specifyFallback":false,"kind":"Object","defaultValues":{"name":{"$content":"AngularSpeed","$type":"System.String"},"object":null},"position":{"x":52.0,"y":1160.0},"guid":"f1df60a9-86ef-4191-8951-1a77192c6f53","$version":"A","$type":"Unity.VisualScripting.GetVariable","$id":"102"},{"member":{"name":"deltaTime","parameterTypes":null,"targetType":"UnityEngine.Time","targetTypeName":"UnityEngine.Time","$version":"A"},"defaultValues":{},"position":{"x":-214.0,"y":1276.0},"guid":"2386b070-42c7-4a7b-9d8f-5a6e4e974ac4","$version":"A","$type":"Unity.VisualScripting.GetMember","$id":"104"},{"defaultValues":{},"position":{"x":772.0,"y":565.0},"guid":"905401f5-5637-45e5-a4d5-103c25ec7123","$version":"A","$type":"Unity.VisualScripting.GenericMultiply","$id":"107"},{"sourceUnit":{"$ref":"25"},"sourceKey":"trigger","destinationUnit":{"$ref":"11"},"destinationKey":"enter","guid":"96b53e2c-66ae-4f29-a7ff-8810f910cd1e","$type":"Unity.VisualScripting.ControlConnection"},{"sourceUnit":{"$ref":"50"},"sourceKey":"exit","destinationUnit":{"$ref":"32"},"destinationKey":"enter","guid":"ddc8eb02-5ebb-4d5b-8520-ac5f5ba9d004","$type":"Unity.VisualScripting.ControlConnection"},{"sourceUnit":{"$ref":"27"},"sourceKey":"trigger","destinationUnit":{"$ref":"50"},"destinationKey":"enter","guid":"ab26d4ce-9e49-40d9-9f47-8769be80853c","$type":"Unity.VisualScripting.ControlConnection"},{"sourceUnit":{"$ref":"9"},"sourceKey":"trigger","destinationUnit":{"$ref":"63"},"destinationKey":"enter","guid":"445725c0-e250-4aa0-8937-01a787af0513","$type":"Unity.VisualScripting.ControlConnection"},{"sourceUnit":{"$ref":"63"},"sourceKey":"exit","destinationUnit":{"$ref":"67"},"destinationKey":"enter","guid":"8eaf65a0-8365-40d6-8ec2-d9a960ba8b07","$type":"Unity.VisualScripting.ControlConnection"},{"sourceUnit":{"$ref":"67"},"sourceKey":"ifTrue","destinationUnit":{"$ref":"69"},"destinationKey":"enter","guid":"8a3d6230-e0d5-430f-83c9-4c66831a0537","$type":"Unity.VisualScripting.ControlConnection"},{"sourceUnit":{"$ref":"90"},"sourceKey":"trigger","destinationUnit":{"$ref":"92"},"destinationKey":"enter","guid":"f292c8cc-9ffa-4087-aed8-53ed13614c20","$type":"Unity.VisualScripting.ControlConnection"},{"sourceUnit":{"$ref":"92"},"sourceKey":"exit","destinationUnit":{"$ref":"96"},"destinationKey":"enter","guid":"6830b7bc-f88b-406e-83e4-e42ef414a9bc","$type":"Unity.VisualScripting.ControlConnection"},{"sourceUnit":{"$ref":"11"},"sourceKey":"exit","destinationUnit":{"$ref":"15"},"destinationKey":"enter","guid":"95a8c5bc-c5b8-4041-b6eb-aec12ed7c78c","$type":"Unity.VisualScripting.ControlConnection"},{"sourceUnit":{"$ref":"15"},"sourceKey":"ifTrue","destinationUnit":{"$ref":"46"},"destinationKey":"enter","guid":"0b70331c-06cb-4838-a4f6-5e656e1be232","$type":"Unity.VisualScripting.ControlConnection"},{"sourceUnit":{"$ref":"32"},"sourceKey":"ifTrue","destinationUnit":{"$ref":"56"},"destinationKey":"enter","guid":"5b58c69a-1129-439a-8ac8-7ce8b2a0d707","$type":"Unity.VisualScripting.ControlConnection"},{"sourceUnit":{"$ref":"96"},"sourceKey":"ifTrue","destinationUnit":{"$ref":"98"},"destinationKey":"enter","guid":"c5e07f64-b77f-4b80-a420-5bc7200cc139","$type":"Unity.VisualScripting.ControlConnection"},{"sourceUnit":{"$ref":"78"},"sourceKey":"product","destinationUnit":{"$ref":"107"},"destinationKey":"b","guid":"b1423be1-2c91-4a78-935b-29ab8f0a2f7f","$type":"Unity.VisualScripting.ValueConnection"},{"sourceUnit":{"$ref":"39"},"sourceKey":"product","destinationUnit":{"$ref":"41"},"destinationKey":"b","guid":"1f26fdd1-b6c8-4c69-86c4-7f0adba950ab","$type":"Unity.VisualScripting.ValueConnection"},{"sourceUnit":{"$ref":"107"},"sourceKey":"product","destinationUnit":{"$ref":"54"},"destinationKey":"a","guid":"606a6a01-cf54-4a75-bc25-94d4b5b76463","$type":"Unity.VisualScripting.ValueConnection"},{"sourceUnit":{"$ref":"63"},"sourceKey":"result","destinationUnit":{"$ref":"67"},"destinationKey":"condition","guid":"a7e9c8fe-1101-4375-88d4-d9ce39b7e5c0","$type":"Unity.VisualScripting.ValueConnection"},{"sourceUnit":{"$ref":"73"},"sourceKey":"value","destinationUnit":{"$ref":"78"},"destinationKey":"a","guid":"68d5e26d-0dde-4ee1-a591-1920a33f1091","$type":"Unity.VisualScripting.ValueConnection"},{"sourceUnit":{"$ref":"36"},"sourceKey":"value","destinationUnit":{"$ref":"39"},"destinationKey":"b","guid":"8152509e-ed4e-432f-9d7d-320506ced1e8","$type":"Unity.VisualScripting.ValueConnection"},{"sourceUnit":{"$ref":"54"},"sourceKey":"product","destinationUnit":{"$ref":"69"},"destinationKey":"%eulers","guid":"f682dcb3-67da-4e07-8cd5-f7c01b4737ac","$type":"Unity.VisualScripting.ValueConnection"},{"sourceUnit":{"$ref":"75"},"sourceKey":"value","destinationUnit":{"$ref":"41"},"destinationKey":"a","guid":"0e42adca-f8a7-40b0-a6f4-606897259116","$type":"Unity.VisualScripting.ValueConnection"},{"sourceUnit":{"$ref":"85"},"sourceKey":"value","destinationUnit":{"$ref":"19"},"destinationKey":"a","guid":"3ecd575a-b02c-40f2-b920-2ceef47c57d1","$type":"Unity.VisualScripting.ValueConnection"},{"sourceUnit":{"$ref":"80"},"sourceKey":"value","destinationUnit":{"$ref":"107"},"destinationKey":"a","guid":"9dc1a0c8-4414-432f-a25e-91469b4bf1ee","$type":"Unity.VisualScripting.ValueConnection"},{"sourceUnit":{"$ref":"19"},"sourceKey":"product","destinationUnit":{"$ref":"98"},"destinationKey":"%eulers","guid":"98158532-d92f-4100-973a-55420084c1bd","$type":"Unity.VisualScripting.ValueConnection"},{"sourceUnit":{"$ref":"92"},"sourceKey":"result","destinationUnit":{"$ref":"96"},"destinationKey":"condition","guid":"0b358967-b48e-44a9-924b-05db9d43bd74","$type":"Unity.VisualScripting.ValueConnection"},{"sourceUnit":{"$ref":"102"},"sourceKey":"value","destinationUnit":{"$ref":"83"},"destinationKey":"a","guid":"749fbb14-8f47-46c2-abf7-01a8a536090a","$type":"Unity.VisualScripting.ValueConnection"},{"sourceUnit":{"$ref":"104"},"sourceKey":"value","destinationUnit":{"$ref":"83"},"destinationKey":"b","guid":"cde86928-aa8c-48ab-b961-59c50ba71524","$type":"Unity.VisualScripting.ValueConnection"},{"sourceUnit":{"$ref":"83"},"sourceKey":"product","destinationUnit":{"$ref":"19"},"destinationKey":"b","guid":"70055dab-e9f5-44ee-847d-f4a96b03ee92","$type":"Unity.VisualScripting.ValueConnection"},{"sourceUnit":{"$ref":"88"},"sourceKey":"output","destinationUnit":{"$ref":"54"},"destinationKey":"b","guid":"7a78bce5-1b7c-4b9d-a163-afcc9d7a935c","$type":"Unity.VisualScripting.ValueConnection"},{"sourceUnit":{"$ref":"11"},"sourceKey":"result","destinationUnit":{"$ref":"15"},"destinationKey":"condition","guid":"8621996a-33c5-4b00-8b90-50b2313dbf26","$type":"Unity.VisualScripting.ValueConnection"},{"sourceUnit":{"$ref":"60"},"sourceKey":"value","destinationUnit":{"$ref":"78"},"destinationKey":"b","guid":"b4621f12-91bf-4f44-90d4-e821f539e52e","$type":"Unity.VisualScripting.ValueConnection"},{"sourceUnit":{"$ref":"50"},"sourceKey":"result","destinationUnit":{"$ref":"32"},"destinationKey":"condition","guid":"f2ba8577-385f-463a-b09f-a970e93f5094","$type":"Unity.VisualScripting.ValueConnection"},{"sourceUnit":{"$ref":"23"},"sourceKey":"product","destinationUnit":{"$ref":"46"},"destinationKey":"%translation","guid":"f586527f-a0f2-4f6d-899c-d92c9cfc69d1","$type":"Unity.VisualScripting.ValueConnection"},{"sourceUnit":{"$ref":"34"},"sourceKey":"value","destinationUnit":{"$ref":"39"},"destinationKey":"a","guid":"551d924f-04f3-4387-af35-a4db0eadff3f","$type":"Unity.VisualScripting.ValueConnection"},{"sourceUnit":{"$ref":"17"},"sourceKey":"value","destinationUnit":{"$ref":"21"},"destinationKey":"a","guid":"dfb2e066-6cd5-42ea-8298-b83cc4dbffa4","$type":"Unity.VisualScripting.ValueConnection"},{"sourceUnit":{"$ref":"29"},"sourceKey":"value","destinationUnit":{"$ref":"21"},"destinationKey":"b","guid":"905e8e35-1ff0-42f5-b361-85a145211662","$type":"Unity.VisualScripting.ValueConnection"},{"sourceUnit":{"$ref":"21"},"sourceKey":"product","destinationUnit":{"$ref":"23"},"destinationKey":"b","guid":"46935ee4-f866-4afb-bf97-1bedd5f08540","$type":"Unity.VisualScripting.ValueConnection"},{"sourceUnit":{"$ref":"43"},"sourceKey":"value","destinationUnit":{"$ref":"23"},"destinationKey":"a","guid":"515bb176-3f62-40b9-9083-69e5a86911f7","$type":"Unity.VisualScripting.ValueConnection"},{"sourceUnit":{"$ref":"41"},"sourceKey":"product","destinationUnit":{"$ref":"56"},"destinationKey":"%translation","guid":"c05dc437-8353-4ffa-a054-40308ca2a3fb","$type":"Unity.VisualScripting.ValueConnection"}],"$version":"A"}}'
    _objectReferences: []
